…
## Intersectional analysis

``` r
set.seed(42)
n <- nrow(compas_sim)
intersectional_fairness(
  predictions = compas_sim$risk_score,
  labels      = compas_sim$recidivism,
  race        = compas_sim$race,
  age_group   = sample(c("Young", "Old"), n, replace = TRUE)
)
#> 
#> ── Fairness metrics (reference: Black x Young)
#> # A tibble: 28 × 5
#>    group         metric         value ratio difference
#>  * <chr>         <chr>          <dbl> <dbl>      <dbl>
#>  1 Black x Old   selection_rate 0.565 0.980   -0.0117 
#>  2 Black x Old   tpr            0.905 1.01     0.00685
#>  3 Black x Old   fpr            0.25  0.827   -0.0525 
#>  4 Black x Old   ppv            0.770 1.07     0.0534 
#>  5 Black x Old   accuracy       0.825 1.04     0.0347 
#>  6 Black x Old   brier          0.141 0.870   -0.0210 
#>  7 Black x Old   auc            0.922 1.05     0.0431 
#>  8 Black x Young selection_rate 0.577 1        0      
#>  9 Black x Young tpr            0.899 1        0      
#> 10 Black x Young fpr            0.302 1        0      
#> # ℹ 18 more rows
```
